Intro to R Workshop - Part 2
…
group_by() site, site-seq, month

mutate() to create a new column that uses an operation over other
columns

summarize() to calculate the average and create a new table

# start with this

inverts %>% 
  group_by(Site_Seq, month) %>%  # group by Site-Seq and month to collapse all biomass within a pool during a month
  mutate(total_biomass = sum(mass_mg, na.rm = T)) # find the total biomass for each pool, at each month

## # A tibble: 2,729 x 10
## # Groups:   Site_Seq, month [42]
##    Site_Seq  Site  Seq   Date       month Order    Family    Lowest_ID   mass_mg
##    <chr>     <chr> <chr> <date>     <chr> <chr>    <chr>     <chr>         <dbl>
##  1 LAG2-SEQ3 LAG2  SEQ3  2021-07-26 Jul   Trichop~ Hydropsy~ Hydropsych~ 3.88   
##  2 LAG2-SEQ3 LAG2  SEQ3  2021-07-26 Jul   Coleopt~ Hydrophi~ Hydrophili~ 0.249  
##  3 LAG2-SEQ3 LAG2  SEQ3  2021-07-26 Jul   Diptera  Ceratopo~ Ceratopogo~ 0.0724 
##  4 LAG2-SEQ3 LAG2  SEQ3  2021-07-26 Jul   Hemipte~ Mesoveli~ Mesoveliid~ 0.0108 
##  5 LAG2-SEQ3 LAG2  SEQ3  2021-07-26 Jul   Diptera  Chironom~ Chironomid~ 0.0110 
##  6 LAG2-SEQ3 LAG2  SEQ3  2021-07-26 Jul   Diptera  Chironom~ Chironomid~ 0.0110 
##  7 LAG2-SEQ3 LAG2  SEQ3  2021-07-26 Jul   Ephemer~ Potamant~ Potamanthi~ 0.0224 
##  8 LAG2-SEQ3 LAG2  SEQ3  2021-07-26 Jul   Diptera  Chironom~ Chironomid~ 0.00290
##  9 LAG2-SEQ3 LAG2  SEQ3  2021-07-26 Jul   Diptera  Chironom~ Chironomid~ 0.00290
## 10 SG-SEQ3   SG    SEQ3  2021-07-24 Jul   Hemipte~ <NA>      Hemiptera   0.005  
## # ... with 2,719 more rows, and 1 more variable: total_biomass <dbl>
…
